Getting Started with tidyAML
…
As we see above, one of the models has gracefully failed, thanks in
part to the function purrr::safely(), which was used to
make what I call safe_make functions.

Let’s look at the fitted workflow predictions.

frt_tbl$pred_wflw
#> [[1]]
#> # A tibble: 64 × 3
#>    .data_category .data_type .value
#>    <chr>          <chr>       <dbl>
#>  1 actual         actual       21.4
#>  2 actual         actual       15.2
#>  3 actual         actual       26  
#>  4 actual         actual       15  
#>  5 actual         actual       33.9
#>  6 actual         actual       22.8
#>  7 actual         actual       15.5
#>  8 actual         actual       17.3
#>  9 actual         actual       13.3
#> 10 actual         actual       19.2
#> # ℹ 54 more rows
#> 
#> [[2]]
#> # A tibble: 64 × 3
#>    .data_category .data_type .value
#>    <chr>          <chr>       <dbl>
#>  1 actual         actual       21.4
#>  2 actual         actual       15.2
#>  3 actual         actual       26  
#>  4 actual         actual       15  
#>  5 actual         actual       33.9
#>  6 actual         actual       22.8
#>  7 actual         actual       15.5
#>  8 actual         actual       17.3
#>  9 actual         actual       13.3
#> 10 actual         actual       19.2
#> # ℹ 54 more rows
